distro;ui;other_software;phone;year;cpu;ram
Manjaro;Plasma Mobile;Spiele;PinePhone v1.2;2020;4 * 1,15 GHz;2
postmarketOS v22.12;i3wm;;Nokia N900;2009;600 MHz ARMv7;0,256
Maemo 5 / postmarketOS;Hildon / i3;;Nokia N900;2009;600 MHz ARMv7;0,256
Maemo 6;;;Nokia N9;2011;1 GHz ARMv7;1
OM 2009;;;Openmoko GTA02 Neo Freerunner;2008;400 MHz ARMv4;0,128
SHR;Enlightenment;;HTC Dream;2008;552 MHz ARMv6;0,192
postmarketOS edge;Sxmo;;PINE64 PinePhone v1.2 + Keyboard;2020;4 * 1,15 GHz;2
postmarketOS v22.12;Phosh;;PINE64 PinePhone v1.2a;2020;4 * 1,15 GHz;3
various;please ask;;PINE64 PinePhone v1.2a;2020;4 * 1,15 GHz;3
Ubuntu Touch 16.04;Lomiri;;Sony Xperia X;2016;2 * 1,8 + 4 * 1,2 GHz;3
Mobian;Phosh;pinhole / libcamera;PINE64 PinePhone Pro EE;2022;6 * 1,5 GHz;4
postmarketOS edge;GNOME mobile;Waydroid;PINE64 PinePhone Pro EE;2022;6 * 1,5 GHz;4
Ubuntu Touch 20.04;Lomiri;Waydroid;Google Pixel 3a;2019;4 * 2,0 + 4 * 1,7 GHz;4
Sailfish OS;proprietary;Android App Support;Sony Xperia 10 III;2021;2 * 2,0 + 6 * 1,7 GHz;6
PureOS;Phosh;;Purism Librem 5;2019;4 * 1,5 GHz;3
Firefox OS;Gaia;;ZTE Open C;2014;2 * 1,2GHz ARMv7;0,512
postmarketOS edge;Plasma Mobile;;Purism Librem 5;2019;4 * 1,5 GHz;3
Mobian;Phosh;;Purism Librem 5;2019;4 * 1,5 GHz;3
postmarketOS edge;GNOME Mobile;Waydroid;OnePlus 6T;2018;4 * 2,8 + 4 * 1,7 GHz;8
postmarketOS v21.12;Phosh;;Motorola G4 Plus;2016;4 * 1,2 GHz;2
postmarketOS edge;Plasma Mobile;;SHIFTphones SHIFT6mq;2020;4 * 2,8 + 4 * 1,7 GHz;8
postmarketOS edge;Phosh;;OnePlus 6;2018;4 * 2,8 + 4 * 1,7 GHz;6
