<?xml version="1.0" encoding="UTF-8" standalone="no"?>
<!-- Created with Inkscape (http://www.inkscape.org/) -->

<svg
   width="210mm"
   height="297mm"
   viewBox="0 0 210 297"
   version="1.1"
   id="svg5"
   inkscape:version="1.2.2 (b0a8486541, 2022-12-01)"
   sodipodi:docname="labels.svg"
   xmlns:inkscape="http://www.inkscape.org/namespaces/inkscape"
   xmlns:sodipodi="http://sodipodi.sourceforge.net/DTD/sodipodi-0.dtd"
   xmlns="http://www.w3.org/2000/svg"
   xmlns:svg="http://www.w3.org/2000/svg">
  <sodipodi:namedview
     id="namedview7"
     pagecolor="#ffffff"
     bordercolor="#666666"
     borderopacity="1.0"
     inkscape:showpageshadow="2"
     inkscape:pageopacity="0.0"
     inkscape:pagecheckerboard="0"
     inkscape:deskcolor="#d1d1d1"
     inkscape:document-units="mm"
     showgrid="false"
     inkscape:zoom="0.61018263"
     inkscape:cx="142.58026"
     inkscape:cy="591.62615"
     inkscape:window-width="1920"
     inkscape:window-height="985"
     inkscape:window-x="0"
     inkscape:window-y="54"
     inkscape:window-maximized="1"
     inkscape:current-layer="layer1"
     showguides="true">
    <sodipodi:guide
       position="10,215.3602"
       orientation="-1,0"
       id="guide562"
       inkscape:locked="false"
       inkscape:label=""
       inkscape:color="rgb(0,134,229)" />
    <sodipodi:guide
       position="9.9999997,287"
       orientation="0,1"
       id="guide564"
       inkscape:locked="false"
       inkscape:label=""
       inkscape:color="rgb(0,134,229)" />
    <sodipodi:guide
       position="71.434832,10"
       orientation="0,1"
       id="guide566"
       inkscape:locked="false"
       inkscape:label=""
       inkscape:color="rgb(0,134,229)" />
    <sodipodi:guide
       position="200,212.89693"
       orientation="-1,0"
       id="guide568"
       inkscape:locked="false"
       inkscape:label=""
       inkscape:color="rgb(0,134,229)" />
    <sodipodi:guide
       position="15,270.95972"
       orientation="-1,0"
       id="guide705"
       inkscape:locked="false"
       inkscape:label=""
       inkscape:color="rgb(0,134,229)" />
    <sodipodi:guide
       position="40.292061,227"
       orientation="0,1"
       id="guide707"
       inkscape:locked="false"
       inkscape:label=""
       inkscape:color="rgb(0,134,229)" />
    <sodipodi:guide
       position="90,253.54088"
       orientation="-1,0"
       id="guide709"
       inkscape:locked="false"
       inkscape:label=""
       inkscape:color="rgb(0,134,229)" />
    <sodipodi:guide
       position="82.49535,182"
       orientation="0,1"
       id="guide711"
       inkscape:locked="false"
       inkscape:label=""
       inkscape:color="rgb(0,134,229)" />
    <sodipodi:guide
       position="94.999998,270.37543"
       orientation="1,0"
       id="guide1791"
       inkscape:locked="false" />
    <sodipodi:guide
       position="180,287.00001"
       orientation="1,0"
       id="guide1854"
       inkscape:locked="false" />
    <sodipodi:guide
       position="10,177"
       orientation="0,-1"
       id="guide1858"
       inkscape:locked="false" />
    <sodipodi:guide
       position="10.313314,67"
       orientation="0,1"
       id="guide1860"
       inkscape:locked="false"
       inkscape:label=""
       inkscape:color="rgb(0,134,229)" />
  </sodipodi:namedview>
  <defs
     id="defs2">
    <rect
       x="38.979456"
       y="141.73228"
       width="283.62363"
       height="94.149682"
       id="rect701" />
    <rect
       x="57.896709"
       y="58.248752"
       width="283.49039"
       height="111.558"
       id="rect693" />
    <rect
       x="57.896709"
       y="58.248752"
       width="283.49039"
       height="111.558"
       id="rect491" />
    <rect
       x="38.979456"
       y="141.73228"
       width="283.62363"
       height="71.03689"
       id="rect493" />
    <rect
       x="57.896709"
       y="58.248752"
       width="283.49039"
       height="111.558"
       id="rect515" />
    <rect
       x="38.979456"
       y="141.73228"
       width="283.62363"
       height="71.03689"
       id="rect517" />
    <rect
       x="57.896709"
       y="58.248752"
       width="283.49039"
       height="111.558"
       id="rect539" />
    <rect
       x="38.979456"
       y="141.73228"
       width="283.62363"
       height="71.03689"
       id="rect541" />
    <rect
       x="57.896709"
       y="58.248752"
       width="283.49039"
       height="111.558"
       id="rect563" />
    <rect
       x="38.979456"
       y="141.73228"
       width="283.62363"
       height="71.03689"
       id="rect565" />
    <rect
       x="57.896709"
       y="58.248752"
       width="283.49039"
       height="111.558"
       id="rect497" />
    <rect
       x="38.979456"
       y="141.73228"
       width="283.62363"
       height="51.036881"
       id="rect499" />
    <rect
       x="57.896709"
       y="58.248752"
       width="283.49039"
       height="111.558"
       id="rect525" />
    <rect
       x="38.979456"
       y="141.73228"
       width="283.62363"
       height="51.036881"
       id="rect527" />
    <rect
       x="57.896709"
       y="58.248752"
       width="283.49039"
       height="111.558"
       id="rect553" />
    <rect
       x="38.979456"
       y="141.73228"
       width="283.62363"
       height="51.036881"
       id="rect555" />
    <rect
       x="57.896709"
       y="58.248752"
       width="283.49039"
       height="111.558"
       id="rect1567" />
    <rect
       x="38.979456"
       y="141.73228"
       width="283.62363"
       height="94.149682"
       id="rect1569" />
    <rect
       x="57.896709"
       y="58.248752"
       width="283.49039"
       height="111.558"
       id="rect1595" />
    <rect
       x="38.979456"
       y="141.73228"
       width="283.62363"
       height="94.149682"
       id="rect1597" />
    <rect
       x="57.896709"
       y="58.248752"
       width="283.49039"
       height="111.558"
       id="rect1623" />
    <rect
       x="38.979456"
       y="141.73228"
       width="283.62363"
       height="94.149682"
       id="rect1625" />
    <rect
       x="57.896709"
       y="58.248752"
       width="283.49039"
       height="111.558"
       id="rect4711" />
    <rect
       x="38.979456"
       y="141.73228"
       width="283.62363"
       height="94.149682"
       id="rect4713" />
    <rect
       x="57.896709"
       y="58.248752"
       width="283.49039"
       height="111.558"
       id="rect5774" />
    <rect
       x="38.979456"
       y="141.73228"
       width="283.62363"
       height="94.149682"
       id="rect5776" />
    <rect
       x="57.896709"
       y="58.248752"
       width="283.49039"
       height="111.558"
       id="rect5778" />
    <rect
       x="38.979456"
       y="141.73228"
       width="283.62363"
       height="94.149682"
       id="rect5780" />
    <rect
       x="57.896709"
       y="58.248752"
       width="283.49039"
       height="111.558"
       id="rect5882" />
    <rect
       x="38.979456"
       y="141.73228"
       width="283.62363"
       height="94.149682"
       id="rect5884" />
    <rect
       x="57.896709"
       y="58.248752"
       width="283.49039"
       height="111.558"
       id="rect5886" />
    <rect
       x="38.979456"
       y="141.73228"
       width="283.62363"
       height="94.149682"
       id="rect5888" />
    <rect
       x="57.896709"
       y="58.248752"
       width="283.49039"
       height="111.558"
       id="rect5990" />
    <rect
       x="38.979456"
       y="141.73228"
       width="283.62363"
       height="94.149682"
       id="rect5992" />
    <rect
       x="57.896709"
       y="58.248752"
       width="283.49039"
       height="111.558"
       id="rect5994" />
    <rect
       x="38.979456"
       y="141.73228"
       width="283.62363"
       height="94.149682"
       id="rect5996" />
  </defs>
  <g
     inkscape:label="Layer 1"
     inkscape:groupmode="layer"
     id="layer1">
    <g
       id="g5672">
      <g
         id="g4681">
        <rect
           style="fill:none;stroke:none;stroke-width:0.626628"
           id="rect4653"
           width="84.373375"
           height="54.373371"
           x="10.313314"
           y="10.313314" />
        <rect
           style="fill:none;stroke:none;stroke-width:0.626628"
           id="rect4655"
           width="84.373375"
           height="54.373371"
           x="10.313314"
           y="65.313316" />
        <text
           xml:space="preserve"
           transform="matrix(0.26458333,0,0,0.26458333,-0.32533483,53.81055)"
           id="text4669"
           style="font-style:normal;font-weight:normal;font-size:26.6667px;line-height:1.1;font-family:sans-serif;white-space:pre;shape-inside:url(#rect4711);display:inline;fill:#000000;fill-opacity:1;stroke:none"><tspan
             x="57.896484"
             y="80.511414"
             id="tspan583"><tspan
               style="font-weight:bold;font-family:'Liberation Sans';-inkscape-font-specification:'Liberation Sans Bold'"
               id="tspan581">{distro}
</tspan></tspan><tspan
             x="57.896484"
             y="110.08801"
             id="tspan587"><tspan
               style="font-weight:bold;font-family:'Liberation Sans';-inkscape-font-specification:'Liberation Sans Bold'"
               id="tspan585">{ui}
</tspan></tspan><tspan
             x="57.896484"
             y="139.6646"
             id="tspan591"><tspan
               style="font-weight:bold;font-family:'Liberation Sans';-inkscape-font-specification:'Liberation Sans Bold'"
               id="tspan589">{other_software}</tspan></tspan></text>
        <text
           xml:space="preserve"
           transform="matrix(0.26458333,0,0,0.26458333,4.6446011,59.333599)"
           id="text4679"
           style="font-style:normal;font-weight:normal;font-size:20px;line-height:1.25;font-family:sans-serif;white-space:pre;shape-inside:url(#rect4713);display:inline;fill:#000000;fill-opacity:1;stroke:none"><tspan
             x="38.978516"
             y="159.92993"
             id="tspan595"><tspan
               style="font-style:italic;font-family:'Liberation Sans';-inkscape-font-specification:'Liberation Sans Italic'"
               id="tspan593">{phone} ({year})
</tspan></tspan><tspan
             x="38.978516"
             y="185.06376"
             id="tspan599"><tspan
               style="font-style:italic;font-family:'Liberation Sans';-inkscape-font-specification:'Liberation Sans Italic'"
               id="tspan597">{cpu} / {ram} GB RAM</tspan></tspan></text>
      </g>
      <g
         id="g4687"
         transform="translate(0.02236067,0.02236045)">
        <path
           style="fill:none;stroke:#000000;stroke-width:0.0447214;stroke-linecap:butt;stroke-linejoin:miter;stroke-dasharray:none;stroke-opacity:1"
           d="m 10,10.000001 h 2"
           id="path4683"
           sodipodi:nodetypes="cc" />
        <path
           style="fill:none;stroke:#000000;stroke-width:0.0447214;stroke-linecap:butt;stroke-linejoin:miter;stroke-dasharray:none;stroke-opacity:1"
           d="m 10,10.000001 v 2"
           id="path4685"
           sodipodi:nodetypes="cc" />
      </g>
      <g
         id="g4695"
         transform="rotate(90,51.775062,51.775063)">
        <path
           style="fill:none;stroke:#000000;stroke-width:0.0447214;stroke-linecap:butt;stroke-linejoin:miter;stroke-dasharray:none;stroke-opacity:1"
           d="m 10.02236,8.5724879 h 2"
           id="path4689"
           sodipodi:nodetypes="cc" />
        <path
           style="fill:none;stroke:#000000;stroke-width:0.0447214;stroke-linecap:butt;stroke-linejoin:miter;stroke-dasharray:none;stroke-opacity:1"
           d="M 10.02236,8.5724879 V 10.572488"
           id="path4691"
           sodipodi:nodetypes="cc" />
      </g>
      <g
         id="g4701"
         transform="rotate(-90,64.997293,64.974933)">
        <path
           style="fill:none;stroke:#000000;stroke-width:0.0447214;stroke-linecap:butt;stroke-linejoin:miter;stroke-dasharray:none;stroke-opacity:1"
           d="m 10,10.000001 h 2"
           id="path4697"
           sodipodi:nodetypes="cc" />
        <path
           style="fill:none;stroke:#000000;stroke-width:0.0447214;stroke-linecap:butt;stroke-linejoin:miter;stroke-dasharray:none;stroke-opacity:1"
           d="m 10,10.000001 v 2"
           id="path4699"
           sodipodi:nodetypes="cc" />
      </g>
      <g
         id="g4707"
         transform="rotate(180,52.488819,64.98882)">
        <path
           style="fill:none;stroke:#000000;stroke-width:0.0447214;stroke-linecap:butt;stroke-linejoin:miter;stroke-dasharray:none;stroke-opacity:1"
           d="m 10,10.000001 h 2"
           id="path4703"
           sodipodi:nodetypes="cc" />
        <path
           style="fill:none;stroke:#000000;stroke-width:0.0447214;stroke-linecap:butt;stroke-linejoin:miter;stroke-dasharray:none;stroke-opacity:1"
           d="m 10,10.000001 v 2"
           id="path4705"
           sodipodi:nodetypes="cc" />
      </g>
    </g>
    <g
       id="g5772"
       transform="translate(85)">
      <g
         id="g5744">
        <rect
           style="fill:none;stroke:none;stroke-width:0.626628"
           id="rect5716"
           width="84.373375"
           height="54.373371"
           x="10.313314"
           y="10.313314" />
        <rect
           style="fill:none;stroke:none;stroke-width:0.626628"
           id="rect5718"
           width="84.373375"
           height="54.373371"
           x="10.313314"
           y="65.313316" />
        <text
           xml:space="preserve"
           transform="matrix(0.26458333,0,0,0.26458333,-0.32533483,53.81055)"
           id="text5732"
           style="font-style:normal;font-weight:normal;font-size:26.6667px;line-height:1.1;font-family:sans-serif;white-space:pre;shape-inside:url(#rect5778);display:inline;fill:#000000;fill-opacity:1;stroke:none"><tspan
             x="57.896484"
             y="80.511414"
             id="tspan603"><tspan
               style="font-weight:bold;font-family:'Liberation Sans';-inkscape-font-specification:'Liberation Sans Bold'"
               id="tspan601">{distro}
</tspan></tspan><tspan
             x="57.896484"
             y="110.08801"
             id="tspan607"><tspan
               style="font-weight:bold;font-family:'Liberation Sans';-inkscape-font-specification:'Liberation Sans Bold'"
               id="tspan605">{ui}
</tspan></tspan><tspan
             x="57.896484"
             y="139.6646"
             id="tspan611"><tspan
               style="font-weight:bold;font-family:'Liberation Sans';-inkscape-font-specification:'Liberation Sans Bold'"
               id="tspan609">{other_software}</tspan></tspan></text>
        <text
           xml:space="preserve"
           transform="matrix(0.26458333,0,0,0.26458333,4.6446011,59.333599)"
           id="text5742"
           style="font-style:normal;font-weight:normal;font-size:20px;line-height:1.25;font-family:sans-serif;white-space:pre;shape-inside:url(#rect5780);display:inline;fill:#000000;fill-opacity:1;stroke:none"><tspan
             x="38.978516"
             y="159.92993"
             id="tspan615"><tspan
               style="font-style:italic;font-family:'Liberation Sans';-inkscape-font-specification:'Liberation Sans Italic'"
               id="tspan613">{phone} ({year})
</tspan></tspan><tspan
             x="38.978516"
             y="185.06376"
             id="tspan619"><tspan
               style="font-style:italic;font-family:'Liberation Sans';-inkscape-font-specification:'Liberation Sans Italic'"
               id="tspan617">{cpu} / {ram} GB RAM</tspan></tspan></text>
      </g>
      <g
         id="g5750"
         transform="translate(0.02236067,0.02236045)">
        <path
           style="fill:none;stroke:#000000;stroke-width:0.0447214;stroke-linecap:butt;stroke-linejoin:miter;stroke-dasharray:none;stroke-opacity:1"
           d="m 10,10.000001 h 2"
           id="path5746"
           sodipodi:nodetypes="cc" />
        <path
           style="fill:none;stroke:#000000;stroke-width:0.0447214;stroke-linecap:butt;stroke-linejoin:miter;stroke-dasharray:none;stroke-opacity:1"
           d="m 10,10.000001 v 2"
           id="path5748"
           sodipodi:nodetypes="cc" />
      </g>
      <g
         id="g5758"
         transform="rotate(90,51.775062,51.775063)">
        <path
           style="fill:none;stroke:#000000;stroke-width:0.0447214;stroke-linecap:butt;stroke-linejoin:miter;stroke-dasharray:none;stroke-opacity:1"
           d="m 10.02236,8.5724879 h 2"
           id="path5752"
           sodipodi:nodetypes="cc" />
        <path
           style="fill:none;stroke:#000000;stroke-width:0.0447214;stroke-linecap:butt;stroke-linejoin:miter;stroke-dasharray:none;stroke-opacity:1"
           d="M 10.02236,8.5724879 V 10.572488"
           id="path5754"
           sodipodi:nodetypes="cc" />
      </g>
      <g
         id="g5764"
         transform="rotate(-90,64.997293,64.974933)">
        <path
           style="fill:none;stroke:#000000;stroke-width:0.0447214;stroke-linecap:butt;stroke-linejoin:miter;stroke-dasharray:none;stroke-opacity:1"
           d="m 10,10.000001 h 2"
           id="path5760"
           sodipodi:nodetypes="cc" />
        <path
           style="fill:none;stroke:#000000;stroke-width:0.0447214;stroke-linecap:butt;stroke-linejoin:miter;stroke-dasharray:none;stroke-opacity:1"
           d="m 10,10.000001 v 2"
           id="path5762"
           sodipodi:nodetypes="cc" />
      </g>
      <g
         id="g5770"
         transform="rotate(180,52.488819,64.98882)">
        <path
           style="fill:none;stroke:#000000;stroke-width:0.0447214;stroke-linecap:butt;stroke-linejoin:miter;stroke-dasharray:none;stroke-opacity:1"
           d="m 10,10.000001 h 2"
           id="path5766"
           sodipodi:nodetypes="cc" />
        <path
           style="fill:none;stroke:#000000;stroke-width:0.0447214;stroke-linecap:butt;stroke-linejoin:miter;stroke-dasharray:none;stroke-opacity:1"
           d="m 10,10.000001 v 2"
           id="path5768"
           sodipodi:nodetypes="cc" />
      </g>
    </g>
    <g
       id="g5880"
       transform="translate(85,110)">
      <g
         id="g5852">
        <rect
           style="fill:none;stroke:none;stroke-width:0.626628"
           id="rect5824"
           width="84.373375"
           height="54.373371"
           x="10.313314"
           y="10.313314" />
        <rect
           style="fill:none;stroke:none;stroke-width:0.626628"
           id="rect5826"
           width="84.373375"
           height="54.373371"
           x="10.313314"
           y="65.313316" />
        <text
           xml:space="preserve"
           transform="matrix(0.26458333,0,0,0.26458333,-0.32533483,53.81055)"
           id="text5840"
           style="font-style:normal;font-weight:normal;font-size:26.6667px;line-height:1.1;font-family:sans-serif;white-space:pre;shape-inside:url(#rect5886);display:inline;fill:#000000;fill-opacity:1;stroke:none"><tspan
             x="57.896484"
             y="80.511414"
             id="tspan623"><tspan
               style="font-weight:bold;font-family:'Liberation Sans';-inkscape-font-specification:'Liberation Sans Bold'"
               id="tspan621">{distro}
</tspan></tspan><tspan
             x="57.896484"
             y="110.08801"
             id="tspan627"><tspan
               style="font-weight:bold;font-family:'Liberation Sans';-inkscape-font-specification:'Liberation Sans Bold'"
               id="tspan625">{ui}
</tspan></tspan><tspan
             x="57.896484"
             y="139.6646"
             id="tspan631"><tspan
               style="font-weight:bold;font-family:'Liberation Sans';-inkscape-font-specification:'Liberation Sans Bold'"
               id="tspan629">{other_software}</tspan></tspan></text>
        <text
           xml:space="preserve"
           transform="matrix(0.26458333,0,0,0.26458333,4.6446011,59.333599)"
           id="text5850"
           style="font-style:normal;font-weight:normal;font-size:20px;line-height:1.25;font-family:sans-serif;white-space:pre;shape-inside:url(#rect5888);display:inline;fill:#000000;fill-opacity:1;stroke:none"><tspan
             x="38.978516"
             y="159.92993"
             id="tspan635"><tspan
               style="font-style:italic;font-family:'Liberation Sans';-inkscape-font-specification:'Liberation Sans Italic'"
               id="tspan633">{phone} ({year})
</tspan></tspan><tspan
             x="38.978516"
             y="185.06376"
             id="tspan639"><tspan
               style="font-style:italic;font-family:'Liberation Sans';-inkscape-font-specification:'Liberation Sans Italic'"
               id="tspan637">{cpu} / {ram} GB RAM</tspan></tspan></text>
      </g>
      <g
         id="g5858"
         transform="translate(0.02236067,0.02236045)">
        <path
           style="fill:none;stroke:#000000;stroke-width:0.0447214;stroke-linecap:butt;stroke-linejoin:miter;stroke-dasharray:none;stroke-opacity:1"
           d="m 10,10.000001 h 2"
           id="path5854"
           sodipodi:nodetypes="cc" />
        <path
           style="fill:none;stroke:#000000;stroke-width:0.0447214;stroke-linecap:butt;stroke-linejoin:miter;stroke-dasharray:none;stroke-opacity:1"
           d="m 10,10.000001 v 2"
           id="path5856"
           sodipodi:nodetypes="cc" />
      </g>
      <g
         id="g5866"
         transform="rotate(90,51.775062,51.775063)">
        <path
           style="fill:none;stroke:#000000;stroke-width:0.0447214;stroke-linecap:butt;stroke-linejoin:miter;stroke-dasharray:none;stroke-opacity:1"
           d="m 10.02236,8.5724879 h 2"
           id="path5860"
           sodipodi:nodetypes="cc" />
        <path
           style="fill:none;stroke:#000000;stroke-width:0.0447214;stroke-linecap:butt;stroke-linejoin:miter;stroke-dasharray:none;stroke-opacity:1"
           d="M 10.02236,8.5724879 V 10.572488"
           id="path5862"
           sodipodi:nodetypes="cc" />
      </g>
      <g
         id="g5872"
         transform="rotate(-90,64.997293,64.974933)">
        <path
           style="fill:none;stroke:#000000;stroke-width:0.0447214;stroke-linecap:butt;stroke-linejoin:miter;stroke-dasharray:none;stroke-opacity:1"
           d="m 10,10.000001 h 2"
           id="path5868"
           sodipodi:nodetypes="cc" />
        <path
           style="fill:none;stroke:#000000;stroke-width:0.0447214;stroke-linecap:butt;stroke-linejoin:miter;stroke-dasharray:none;stroke-opacity:1"
           d="m 10,10.000001 v 2"
           id="path5870"
           sodipodi:nodetypes="cc" />
      </g>
      <g
         id="g5878"
         transform="rotate(180,52.488819,64.98882)">
        <path
           style="fill:none;stroke:#000000;stroke-width:0.0447214;stroke-linecap:butt;stroke-linejoin:miter;stroke-dasharray:none;stroke-opacity:1"
           d="m 10,10.000001 h 2"
           id="path5874"
           sodipodi:nodetypes="cc" />
        <path
           style="fill:none;stroke:#000000;stroke-width:0.0447214;stroke-linecap:butt;stroke-linejoin:miter;stroke-dasharray:none;stroke-opacity:1"
           d="m 10,10.000001 v 2"
           id="path5876"
           sodipodi:nodetypes="cc" />
      </g>
    </g>
    <g
       id="g5988"
       transform="translate(2.9251295e-8,110)">
      <g
         id="g5960">
        <rect
           style="fill:none;stroke:none;stroke-width:0.626628"
           id="rect5932"
           width="84.373375"
           height="54.373371"
           x="10.313314"
           y="10.313314" />
        <rect
           style="fill:none;stroke:none;stroke-width:0.626628"
           id="rect5934"
           width="84.373375"
           height="54.373371"
           x="10.313314"
           y="65.313316" />
        <text
           xml:space="preserve"
           transform="matrix(0.26458333,0,0,0.26458333,-0.32533483,53.81055)"
           id="text5948"
           style="font-style:normal;font-weight:normal;font-size:26.6667px;line-height:1.1;font-family:sans-serif;white-space:pre;shape-inside:url(#rect5994);display:inline;fill:#000000;fill-opacity:1;stroke:none"><tspan
             x="57.896484"
             y="80.511414"
             id="tspan643"><tspan
               style="font-weight:bold;font-family:'Liberation Sans';-inkscape-font-specification:'Liberation Sans Bold'"
               id="tspan641">{distro}
</tspan></tspan><tspan
             x="57.896484"
             y="110.08801"
             id="tspan647"><tspan
               style="font-weight:bold;font-family:'Liberation Sans';-inkscape-font-specification:'Liberation Sans Bold'"
               id="tspan645">{ui}
</tspan></tspan><tspan
             x="57.896484"
             y="139.6646"
             id="tspan651"><tspan
               style="font-weight:bold;font-family:'Liberation Sans';-inkscape-font-specification:'Liberation Sans Bold'"
               id="tspan649">{other_software}</tspan></tspan></text>
        <text
           xml:space="preserve"
           transform="matrix(0.26458333,0,0,0.26458333,4.6446011,59.333599)"
           id="text5958"
           style="font-style:normal;font-weight:normal;font-size:20px;line-height:1.25;font-family:sans-serif;white-space:pre;shape-inside:url(#rect5996);display:inline;fill:#000000;fill-opacity:1;stroke:none"><tspan
             x="38.978516"
             y="159.92993"
             id="tspan655"><tspan
               style="font-style:italic;font-family:'Liberation Sans';-inkscape-font-specification:'Liberation Sans Italic'"
               id="tspan653">{phone} ({year})
</tspan></tspan><tspan
             x="38.978516"
             y="185.06376"
             id="tspan659"><tspan
               style="font-style:italic;font-family:'Liberation Sans';-inkscape-font-specification:'Liberation Sans Italic'"
               id="tspan657">{cpu} / {ram} GB RAM</tspan></tspan></text>
      </g>
      <g
         id="g5966"
         transform="translate(0.02236067,0.02236045)">
        <path
           style="fill:none;stroke:#000000;stroke-width:0.0447214;stroke-linecap:butt;stroke-linejoin:miter;stroke-dasharray:none;stroke-opacity:1"
           d="m 10,10.000001 h 2"
           id="path5962"
           sodipodi:nodetypes="cc" />
        <path
           style="fill:none;stroke:#000000;stroke-width:0.0447214;stroke-linecap:butt;stroke-linejoin:miter;stroke-dasharray:none;stroke-opacity:1"
           d="m 10,10.000001 v 2"
           id="path5964"
           sodipodi:nodetypes="cc" />
      </g>
      <g
         id="g5974"
         transform="rotate(90,51.775062,51.775063)">
        <path
           style="fill:none;stroke:#000000;stroke-width:0.0447214;stroke-linecap:butt;stroke-linejoin:miter;stroke-dasharray:none;stroke-opacity:1"
           d="m 10.02236,8.5724879 h 2"
           id="path5968"
           sodipodi:nodetypes="cc" />
        <path
           style="fill:none;stroke:#000000;stroke-width:0.0447214;stroke-linecap:butt;stroke-linejoin:miter;stroke-dasharray:none;stroke-opacity:1"
           d="M 10.02236,8.5724879 V 10.572488"
           id="path5970"
           sodipodi:nodetypes="cc" />
      </g>
      <g
         id="g5980"
         transform="rotate(-90,64.997293,64.974933)">
        <path
           style="fill:none;stroke:#000000;stroke-width:0.0447214;stroke-linecap:butt;stroke-linejoin:miter;stroke-dasharray:none;stroke-opacity:1"
           d="m 10,10.000001 h 2"
           id="path5976"
           sodipodi:nodetypes="cc" />
        <path
           style="fill:none;stroke:#000000;stroke-width:0.0447214;stroke-linecap:butt;stroke-linejoin:miter;stroke-dasharray:none;stroke-opacity:1"
           d="m 10,10.000001 v 2"
           id="path5978"
           sodipodi:nodetypes="cc" />
      </g>
      <g
         id="g5986"
         transform="rotate(180,52.488819,64.98882)">
        <path
           style="fill:none;stroke:#000000;stroke-width:0.0447214;stroke-linecap:butt;stroke-linejoin:miter;stroke-dasharray:none;stroke-opacity:1"
           d="m 10,10.000001 h 2"
           id="path5982"
           sodipodi:nodetypes="cc" />
        <path
           style="fill:none;stroke:#000000;stroke-width:0.0447214;stroke-linecap:butt;stroke-linejoin:miter;stroke-dasharray:none;stroke-opacity:1"
           d="m 10,10.000001 v 2"
           id="path5984"
           sodipodi:nodetypes="cc" />
      </g>
    </g>
  </g>
</svg>
